{
  "users": [
    {
      "id": "Sigve",
      "caughtPokemon": [
        {
          "name": "Squirtle",
          "url": "https://raw.githubusercontent.com/PokeAPI/sprites/master/sprites/pokemon/7.png"
        },
        {
          "name": "Bulbasaur",
          "url": "https://raw.githubusercontent.com/PokeAPI/sprites/master/sprites/pokemon/1.png"
        },
        {
          "name": "Charizard",
          "url": "https://raw.githubusercontent.com/PokeAPI/sprites/master/sprites/pokemon/6.png"
        }
      ]
    },
    {
      "id": "User",
      "caughtPokemon": [
        {
          "name": "Squirtle",
          "url": "https://raw.githubusercontent.com/PokeAPI/sprites/master/sprites/pokemon/7.png"
        }
      ]
    }
  ]
}
